<?xml version="1.0" encoding="UTF-8" standalone="no"?>
<!-- Created with Inkscape (http://www.inkscape.org/) -->

<svg
   xmlns:dc="http://purl.org/dc/elements/1.1/"
   xmlns:cc="http://creativecommons.org/ns#"
   xmlns:rdf="http://www.w3.org/1999/02/22-rdf-syntax-ns#"
   xmlns:svg="http://www.w3.org/2000/svg"
   xmlns="http://www.w3.org/2000/svg"
   xmlns:sodipodi="http://sodipodi.sourceforge.net/DTD/sodipodi-0.dtd"
   xmlns:inkscape="http://www.inkscape.org/namespaces/inkscape"
   width="1000"
   height="1000"
   viewBox="0 0 264.58333 264.58333"
   version="1.1"
   id="svg8"
   inkscape:version="0.92.2 (unknown)"
   sodipodi:docname="logo.svg"
   inkscape:export-filename="/home/harry/Projects/sidewaybot/match-game/matchgame/images/icon-512.png"
   inkscape:export-xdpi="49.150002"
   inkscape:export-ydpi="49.150002">
  <defs
     id="defs2" />
  <sodipodi:namedview
     id="base"
     pagecolor="#ffffff"
     bordercolor="#666666"
     borderopacity="1.0"
     inkscape:pageopacity="0.0"
     inkscape:pageshadow="2"
     inkscape:zoom="0.48"
     inkscape:cx="486.31723"
     inkscape:cy="487.7392"
     inkscape:document-units="mm"
     inkscape:current-layer="layer1"
     showgrid="true"
     gridtolerance="10"
     inkscape:snap-text-baseline="true"
     inkscape:window-width="1920"
     inkscape:window-height="1043"
     inkscape:window-x="0"
     inkscape:window-y="0"
     inkscape:window-maximized="1"
     units="px">
    <inkscape:grid
       type="xygrid"
       id="grid3680"
       units="px"
       spacingx="13.229166"
       spacingy="13.229166"
       snapvisiblegridlinesonly="true" />
  </sodipodi:namedview>
  <metadata
     id="metadata5">
    <rdf:RDF>
      <cc:Work
         rdf:about="">
        <dc:format>image/svg+xml</dc:format>
        <dc:type
           rdf:resource="http://purl.org/dc/dcmitype/StillImage" />
        <dc:title />
      </cc:Work>
    </rdf:RDF>
  </metadata>
  <g
     inkscape:label="Layer 1"
     inkscape:groupmode="layer"
     id="layer1"
     transform="translate(0,-32.416668)">
    <rect
       style="opacity:0.98000004;fill:#ffffff;fill-opacity:1;stroke-width:0.26458332"
       id="rect4498"
       width="264.58331"
       height="264.58331"
       x="0"
       y="32.416683" />
    <rect
       id="rect4487"
       width="264.58331"
       height="264.58331"
       x="0"
       y="32.416683"
       style="stroke-width:0.26458332;fill:#ffffff;fill-opacity:0" />
    <rect
       style="fill:#0064c8;fill-opacity:1;stroke-width:0.30238095"
       id="rect825"
       width="211.66666"
       height="211.66666"
       x="26.458332"
       y="58.875011" />
    <text
       xml:space="preserve"
       style="font-style:normal;font-weight:normal;font-size:40.02109528px;line-height:1.25;font-family:sans-serif;letter-spacing:0px;word-spacing:0px;fill:#c80000;fill-opacity:1;stroke:none;stroke-width:1.00052726;"
       x="50.026428"
       y="244.19157"
       id="text829"
       transform="scale(1.0577742,0.94538137)"><tspan
         sodipodi:role="line"
         id="tspan827"
         x="50.026428"
         y="244.19157"
         style="font-style:normal;font-variant:normal;font-weight:bold;font-stretch:normal;font-size:192.10125732px;font-family:sans-serif;-inkscape-font-specification:'sans-serif, Bold';font-variant-ligatures:normal;font-variant-caps:normal;font-variant-numeric:normal;font-feature-settings:normal;text-align:start;writing-mode:lr-tb;text-anchor:start;fill:#c80000;fill-opacity:1;stroke-width:1.00052726;">A</tspan></text>
  </g>
  <g
     inkscape:groupmode="layer"
     id="layer2"
     inkscape:label="Label" />
</svg>
